<?xml version="1.0" encoding="UTF-8" standalone="no"?>
<svg
   version="1.1"
   viewBox="0 0 632.92999 272.41125"
   width="632.92999"
   height="272.41125"
   id="svg982"
   sodipodi:docname="myHIFIS_main.svg"
   inkscape:export-filename="myHIFIS.png"
   inkscape:export-xdpi="96"
   inkscape:export-ydpi="96"
   inkscape:version="1.2.1 (9c6d41e410, 2022-07-14)"
   xmlns:inkscape="http://www.inkscape.org/namespaces/inkscape"
   xmlns:sodipodi="http://sodipodi.sourceforge.net/DTD/sodipodi-0.dtd"
   xmlns="http://www.w3.org/2000/svg"
   xmlns:svg="http://www.w3.org/2000/svg">
  <sodipodi:namedview
     id="namedview984"
     pagecolor="#ffffff"
     bordercolor="#666666"
     borderopacity="1.0"
     inkscape:showpageshadow="2"
     inkscape:pageopacity="0.0"
     inkscape:pagecheckerboard="0"
     inkscape:deskcolor="#d1d1d1"
     showgrid="false"
     inkscape:zoom="1.1588694"
     inkscape:cx="62.12952"
     inkscape:cy="250.67536"
     inkscape:window-width="1920"
     inkscape:window-height="1126"
     inkscape:window-x="1920"
     inkscape:window-y="0"
     inkscape:window-maximized="1"
     inkscape:current-layer="svg982" />
  <!-- svg-source:excalidraw -->
  <defs
     id="defs840">
    <rect
       x="-87.835213"
       y="345.23001"
       width="845.15863"
       height="376.14005"
       id="rect1306" />
    <style
       id="style838">
      @font-face {
        font-family: &quot;Virgil&quot;;
        src: url(&quot;https://excalidraw.com/Virgil.woff2&quot;);
      }
      @font-face {
        font-family: &quot;Cascadia&quot;;
        src: url(&quot;https://excalidraw.com/Cascadia.woff2&quot;);
      }
    </style>
  </defs>
  <g
     stroke-linecap="round"
     transform="matrix(1.0004363,0,0,0.70512832,192.1452,2.3989465)"
     id="g846">
    <path
       d="m 0.56,-2.05 253.59,2.72 -5.1,166.11 -248.61,-3.7"
       stroke="none"
       stroke-width="0"
       fill="#0064aa"
       id="path842" />
    <path
       d="m 2.36,0.84 c 83.43,-5.13 177.3,-5.56 251.05,2.35 M -0.6,-0.74 c 58.56,5.61 113.78,4.1 252.03,-0.31 m 3.48,0.69 c -3.69,54.99 -2.47,117.4 -4.08,165.56 m 1.23,-165.43 c -1.18,51.01 0.14,102.31 1.57,162.67 m -0.58,0.34 c -69.38,0.79 -143.15,2.72 -254.66,-1.7 m 253.64,3.44 C 156.69,162.1 62.16,160.91 1.6,163.23 m 1.99,-3.08 C 0.6,114.3 3.32,70.71 -3.72,-2.13 M 1.37,162.15 C 3.71,123.51 3.54,88.41 -0.38,1.22"
       stroke="#000000"
       stroke-width="1"
       fill="none"
       id="path844" />
  </g>
  <g
     transform="translate(244.58785,29.683188)"
     id="g850">
    <text
       x="0"
       y="46"
       font-family="'Virgil 3 YOFF'"
       font-size="51.6522px"
       fill="#ffffff"
       text-anchor="start"
       style="font-size:51.6522px;font-family:'Virgil 3 YOFF';direction:ltr;text-anchor:start;white-space:pre;fill:#ffffff"
       direction="ltr"
       id="text848"><tspan
         style="font-style:normal;font-variant:normal;font-weight:normal;font-stretch:normal;font-size:51.6522px;font-family:'Virgil 3 YOFF';-inkscape-font-specification:'Virgil 3 YOFF, Normal';font-variant-ligatures:normal;font-variant-caps:normal;font-variant-numeric:normal;font-variant-east-asian:normal"
         id="tspan1103">HIFIS</tspan></text>
  </g>
  <g
     stroke-linecap="round"
     id="g894"
     transform="translate(-6.8,-56.900293)">
    <g
       transform="translate(200,172)"
       id="g884">
      <path
         d="M -2.28,1.71 C -15.03,8.76 -64.6,35.43 -77.92,42.63 M 1.67,0.16 C -11.13,7.47 -65.98,37 -79.03,44.98"
         stroke="#000000"
         stroke-width="2"
         fill="none"
         id="path882" />
    </g>
    <g
       transform="translate(200,172)"
       id="g888">
      <path
         d="m -57.17,25.08 c -10.6,-0.8 -12.13,9.59 -24.41,20.82 m 23.55,-24.77 c -6.79,10.24 -14.76,17.12 -21.7,24.44"
         stroke="#000000"
         stroke-width="2"
         fill="none"
         id="path886" />
    </g>
    <g
       transform="translate(200,172)"
       id="g892">
      <path
         d="m -47.02,42.92 c -13.16,-5.4 -17.21,0.55 -34.56,2.98 m 33.7,-6.94 c -10.19,4.61 -21.48,5.66 -31.85,6.61"
         stroke="#000000"
         stroke-width="2"
         fill="none"
         id="path890" />
    </g>
  </g>
  <g
     stroke-linecap="round"
     id="g908"
     transform="translate(-6.8,-56.900293)">
    <g
       transform="translate(319,175)"
       id="g898">
      <path
         d="m 1.05,-1.78 c 0.65,8.3 0.49,42.63 0.6,51.52 M -1.82,3.43 c 0.54,7.41 1.24,34.36 1.58,41.7"
         stroke="#000000"
         stroke-width="2"
         fill="none"
         id="path896" />
    </g>
    <g
       transform="translate(319,175)"
       id="g902">
      <path
         d="m -11.99,23.35 c 5.62,4.97 10.28,12.15 9.77,23.82 m -7.92,-24.15 c 4.15,8.61 8.33,16.05 8.73,21.35"
         stroke="#000000"
         stroke-width="2"
         fill="none"
         id="path900" />
    </g>
    <g
       transform="translate(319,175)"
       id="g906">
      <path
         d="M 4.76,22.74 C 6.7,27.98 7.67,35.29 -2.22,47.17 M 6.61,22.41 C 4.54,31.39 2.5,39.06 -1.41,44.37"
         stroke="#000000"
         stroke-width="2"
         fill="none"
         id="path904" />
    </g>
  </g>
  <g
     stroke-linecap="round"
     id="g922"
     transform="translate(-6.8,-56.900293)">
    <g
       transform="translate(448,177)"
       id="g912">
      <path
         d="M 0.46,-1.09 C 15.3,5.47 72.89,32.61 87.79,39.43 M -2.73,-4.16 c 15.82,7.09 80.6,40.98 95.72,47.45"
         stroke="#000000"
         stroke-width="2"
         fill="none"
         id="path910" />
    </g>
    <g
       transform="translate(448,177)"
       id="g916">
      <path
         d="m 61.58,37.11 c 9.77,3.66 17.89,1.38 31.14,8.63 M 62.06,39.93 c 11.09,2.92 24.91,2.57 29.51,4.03"
         stroke="#000000"
         stroke-width="2"
         fill="none"
         id="path914" />
    </g>
    <g
       transform="translate(448,177)"
       id="g920">
      <path
         d="m 70.51,18.63 c 7.5,8.39 13.35,10.82 22.21,27.11 M 70.98,21.46 c 7.63,10.16 17.93,17.12 20.59,22.5"
         stroke="#000000"
         stroke-width="2"
         fill="none"
         id="path918" />
    </g>
  </g>
  <path
     d="m 4.89,163.98971 189.24,2.71 1.7,97.85 -191.05,1.43"
     stroke="none"
     stroke-width="0"
     fill="#228be6"
     id="path852"
     style="stroke-linecap:round" />
  <path
     d="m 6.2,166.09971 c 62.31,2.85 127.28,-0.72 189.26,-1.64 m -191.5,0.78 c 58.03,-2.3 115.1,-3.55 187.44,-0.96 m 4,2.47 c -2.89,22.15 -1.03,44.96 -2.44,99.8 m -2.47,-99.57 c 4.55,27.72 4.76,56.12 0.56,99.96 m 2.85,-1.29 c -46.01,3.86 -94.3,6.51 -189.55,4.29 m 187.23,-1.95 c -68.49,-3.37 -140.75,-1.16 -188.57,-1.48 m -2.51,-2.18 c 1.4,-18.88 0.31,-44.04 3.88,-98.9 m 0.79,100.46 c -4.13,-20.42 -2,-38.78 -0.06,-99.82"
     stroke="#1864ab"
     stroke-width="1"
     fill="none"
     id="path854"
     style="stroke-linecap:round" />
  <text
     x="97.699997"
     y="224.0997"
     font-family="'Virgil 3 YOFF'"
     font-size="28px"
     fill="#ffffff"
     text-anchor="middle"
     style="font-size:28px;font-family:'Virgil 3 YOFF';direction:ltr;text-anchor:middle;white-space:pre;fill:#ffffff"
     direction="ltr"
     id="text858"><tspan
       style="font-style:normal;font-variant:normal;font-weight:normal;font-stretch:normal;font-size:28px;font-family:'Virgil 3 YOFF';-inkscape-font-specification:'Virgil 3 YOFF, Normal';font-variant-ligatures:normal;font-variant-caps:normal;font-variant-numeric:normal;font-variant-east-asian:normal"
       id="tspan1183">Software</tspan></text>
  <text
     x="12.2"
     y="353.0997"
     font-family="'Virgil 3 YOFF'"
     font-size="20px"
     fill="#000000"
     text-anchor="start"
     style="white-space:pre"
     direction="ltr"
     id="text932" />
  <text
     x="12.2"
     y="405.0997"
     font-family="'Virgil 3 YOFF'"
     font-size="20px"
     fill="#000000"
     text-anchor="start"
     style="white-space:pre"
     direction="ltr"
     id="text936" />
  <g
     stroke-linecap="round"
     transform="translate(440.96,166.93824)"
     id="g866">
    <path
       d="m -3.49,-0.27 191.56,1.58 3.9,98.58 L 0.22,97.88"
       stroke="none"
       stroke-width="0"
       fill="#228be6"
       id="path862" />
    <path
       d="m -0.62,-1.91 c 68.6,-0.39 133.25,6.67 189.88,3.4 m -188.65,-3 c 59.98,-1.1 123.33,-0.46 187.67,1.42 m -1.4,2.28 c 2.83,40.05 1.36,71.79 2.47,102.56 M 188.58,1.87 c -3.19,36.51 0.3,75.93 0.19,99.31 m -2.2,0.32 c -45.54,2.39 -93.45,5.7 -188.09,1.36 m 188.67,-3.08 c -64.93,4.29 -132.61,2.09 -188.05,1.56 M 1.3,99.99 C 3.58,64.8 3.02,29.35 2.78,-0.74 M -0.21,102.68 C 1.58,73.06 -0.74,41.02 -0.83,-1.02"
       stroke="#1864ab"
       stroke-width="1"
       fill="none"
       id="path864" />
  </g>
  <g
     transform="translate(471.96,198.93824)"
     id="g870">
    <text
       x="63.5"
       y="26"
       font-family="'Virgil 3 YOFF'"
       font-size="28px"
       fill="#ffffff"
       text-anchor="middle"
       style="font-size:28px;font-family:'Virgil 3 YOFF';direction:ltr;text-anchor:middle;white-space:pre;fill:#ffffff"
       direction="ltr"
       id="text868"><tspan
         style="font-style:normal;font-variant:normal;font-weight:normal;font-stretch:normal;font-size:28px;font-family:'Virgil 3 YOFF';-inkscape-font-specification:'Virgil 3 YOFF, Normal';font-variant-ligatures:normal;font-variant-caps:normal;font-variant-numeric:normal;font-variant-east-asian:normal"
         id="tspan1105">Backbone</tspan></text>
  </g>
  <g
     stroke-linecap="round"
     transform="translate(224.64692,168.00971)"
     id="g876">
    <path
       d="m -3.78,-2.08 192.92,1.5 0.6,101.94 -186.61,-0.24"
       stroke="none"
       stroke-width="0"
       fill="#228be6"
       id="path872" />
    <path
       d="m -3.49,-0.27 c 47.15,3.51 95.63,1.1 192.71,-2.85 M 1.72,0.92 C 51.94,2.1 108.99,2.56 189.64,1.29 m -0.58,-3.27 c -0.05,37.04 -2.92,77.79 -3.72,101.67 m 4.15,-99.45 c 0.41,26.16 0.94,54.41 -0.85,99.45 m -0.17,-0.39 c -68.4,4.3 -131.63,5.02 -184.92,2.82 m 186.39,-0.6 C 149.23,99.11 110.9,97.9 -1.89,101.5 m 0.43,0.81 C 0.72,65.92 -0.45,29.01 -1.87,1.74 M 0.87,99.36 C -3.06,63.29 -0.41,26.6 0.52,-1.96"
       stroke="#1864ab"
       stroke-width="1"
       fill="none"
       id="path874" />
  </g>
  <g
     transform="translate(281.64692,200.00971)"
     id="g880">
    <text
       x="37.5"
       y="26"
       font-family="'Virgil 3 YOFF'"
       font-size="28px"
       fill="#ffffff"
       text-anchor="middle"
       style="font-size:28px;font-family:'Virgil 3 YOFF';direction:ltr;text-anchor:middle;white-space:pre;fill:#ffffff"
       direction="ltr"
       id="text878"><tspan
         style="font-style:normal;font-variant:normal;font-weight:normal;font-stretch:normal;font-size:28px;font-family:'Virgil 3 YOFF';-inkscape-font-specification:'Virgil 3 YOFF, Normal';font-variant-ligatures:normal;font-variant-caps:normal;font-variant-numeric:normal;font-variant-east-asian:normal"
         id="tspan1185">Cloud</tspan></text>
  </g>
</svg>
